Lab 5
…
Question 2

Create a data frame containing the most dangerous vehicle make in each state. The number of persons fatally hit in the vehicle make is used to assess the (non-)safety of a make. Make sure to handle the missing values appropriately. (look up variable MAKE)

df2 <- df1 %>%
  group_by(STATE.x, MAKE) %>%
  summarise(count = n()) %>%
  drop_na(MAKE)

## `summarise()` has grouped output by 'STATE.x'. You can override using the `.groups` argument.

df2

## # A tibble: 1,974 x 3
## # Groups:   STATE.x [51]
##    STATE.x  MAKE count
##      <int> <int> <int>
##  1       1     2    30
##  2       1     3     3
##  3       1     6    10
##  4       1     7    42
##  5       1     9     2
##  6       1    12   138
##  7       1    13     5
##  8       1    14    12
##  9       1    18    18
## 10       1    19     7
## # ... with 1,964 more rows

df3 <- df2 %>%
  group_by(STATE.x) %>%
  filter(count == max(count))

df3

## # A tibble: 54 x 3
## # Groups:   STATE.x [51]
##    STATE.x  MAKE count
##      <int> <int> <int>
##  1       1    12   138
##  2       2    12     9
##  3       4    20    88
##  4       5    20    88
##  5       6    49   351
##  6       8    12    63
##  7       8    37    63
##  8       9    37    28
##  9      10    37    12
## 10      11    37     5
## # ... with 44 more rows

df14 <- df1 %>%
  group_by(STATE.x) %>%
  summarise(LAT = mean(LATITUDE), LON = mean(LONGITUD))%>%
  drop_na

df14

## # A tibble: 51 x 3
##    STATE.x   LAT     LON
##      <int> <dbl>   <dbl>
##  1       1  33.1  -85.6 
##  2       2  62.6 -136.  
##  3       4  40.4    1.59
##  4       5  35.1  -92.5 
##  5       6  35.9 -119.  
##  6       8  39.5 -105.  
##  7       9  41.9  -65.1 
##  8      10  39.2  -75.5 
##  9      11  38.9  -77.0 
## 10      12  28.2  -81.1 
## # ... with 41 more rows
Question 3

Create a map, and label each state with the most dangerous vehicle. Discuss the definition of the most dangerous vehicle, and what you find from the map. (Hint: Read the description for the STATE and COUNTY columns in the FARS manual. The state & county codes are Geographic Locator Codes (GLCs) from the General Services Administrations (GSA) publication. Use readxl::read_xlsx to read in the GLCs.)

GLC1 <- GLC %>%
  select(`State Code`, `State Name`) %>%
  distinct(`State Code`, `State Name`) %>%
  rename(STATE = `State Name`)%>%
  rename(STATE.x = `State Code`)

GLC1$region <- tolower(GLC1$STATE)

GLC1

## # A tibble: 51 x 3
##    STATE.x STATE                region              
##      <int> <chr>                <chr>               
##  1       1 ALABAMA              alabama             
##  2       2 ALASKA               alaska              
##  3       4 ARIZONA              arizona             
##  4       5 ARKANSAS             arkansas            
##  5       6 CALIFORNIA           california          
##  6       8 COLORADO             colorado            
##  7       9 CONNECTICUT          connecticut         
##  8      10 DELAWARE             delaware            
##  9      11 DISTRICT OF COLUMBIA district of columbia
## 10      12 FLORIDA              florida             
## # ... with 41 more rows

joined1 <- inner_join(GLC1, df3, by = 'STATE.x')
joined1

## # A tibble: 54 x 5
##    STATE.x STATE                region                MAKE count
##      <int> <chr>                <chr>                <int> <int>
##  1       1 ALABAMA              alabama                 12   138
##  2       2 ALASKA               alaska                  12     9
##  3       4 ARIZONA              arizona                 20    88
##  4       5 ARKANSAS             arkansas                20    88
##  5       6 CALIFORNIA           california              49   351
##  6       8 COLORADO             colorado                12    63
##  7       8 COLORADO             colorado                37    63
##  8       9 CONNECTICUT          connecticut             37    28
##  9      10 DELAWARE             delaware                37    12
## 10      11 DISTRICT OF COLUMBIA district of columbia    37     5
## # ... with 44 more rows
states <- map_data('state')
str(states)

## 'data.frame':    15537 obs. of  6 variables:
##  $ long     : num  -87.5 -87.5 -87.5 -87.5 -87.6 ...
##  $ lat      : num  30.4 30.4 30.4 30.3 30.3 ...
##  $ group    : num  1 1 1 1 1 1 1 1 1 1 ...
##  $ order    : int  1 2 3 4 5 6 7 8 9 10 ...
##  $ region   : chr  "alabama" "alabama" "alabama" "alabama" ...
##  $ subregion: chr  NA NA NA NA ...

joined2 <- inner_join(joined1, states, by = 'region')
joined2

## # A tibble: 15,950 x 10
##    STATE.x STATE   region   MAKE count  long   lat group order subregion
##      <int> <chr>   <chr>   <int> <int> <dbl> <dbl> <dbl> <int> <chr>    
##  1       1 ALABAMA alabama    12   138 -87.5  30.4     1     1 <NA>     
##  2       1 ALABAMA alabama    12   138 -87.5  30.4     1     2 <NA>     
##  3       1 ALABAMA alabama    12   138 -87.5  30.4     1     3 <NA>     
##  4       1 ALABAMA alabama    12   138 -87.5  30.3     1     4 <NA>     
##  5       1 ALABAMA alabama    12   138 -87.6  30.3     1     5 <NA>     
##  6       1 ALABAMA alabama    12   138 -87.6  30.3     1     6 <NA>     
##  7       1 ALABAMA alabama    12   138 -87.6  30.3     1     7 <NA>     
##  8       1 ALABAMA alabama    12   138 -87.6  30.3     1     8 <NA>     
##  9       1 ALABAMA alabama    12   138 -87.7  30.3     1     9 <NA>     
## 10       1 ALABAMA alabama    12   138 -87.8  30.3     1    10 <NA>     
## # ... with 15,940 more rows
…
## Joining, by = "region"

## [1] long      lat       group     order     region    subregion
## <0 rows> (or 0-length row.names)

joined6 <- inner_join(df14, df2, by = 'STATE.x')

joined6 <- joined6 %>%
  group_by(STATE.x) %>%
  filter(count == max(count))

joined6

## # A tibble: 54 x 5
## # Groups:   STATE.x [51]
##    STATE.x   LAT     LON  MAKE count
##      <int> <dbl>   <dbl> <int> <int>
##  1       1  33.1  -85.6     12   138
##  2       2  62.6 -136.      12     9
##  3       4  40.4    1.59    20    88
##  4       5  35.1  -92.5     20    88
##  5       6  35.9 -119.      49   351
##  6       8  39.5 -105.      12    63
##  7       8  39.5 -105.      37    63
##  8       9  41.9  -65.1     37    28
##  9      10  39.2  -75.5     37    12
## 10      11  38.9  -77.0     37     5
## # ... with 44 more rows
…
Hour of the Day is given in military time There were 408 accidents that happened at an unknown time(number 99). This has been removed from the data

df5 <- df %>%
  group_by(HOUR.x) %>%
  summarise(count = n()) %>%
  filter(!row_number() %in% c(25))

df5

## # A tibble: 24 x 2
##    HOUR.x count
##     <int> <int>
##  1      0  2928
##  2      1  2540
##  3      2  2735
##  4      3  2096
##  5      4  1706
##  6      5  2269
##  7      6  2880
##  8      7  2824
##  9      8  2183
## 10      9  2301
## # ... with 14 more rows
…
Question 6

Now plot a choropleth map of the number of deaths on a county level. Also explain what you find.

I found that there are counties during when this data was collected that didnt have accidents in them. Also, it looks like the majority of the accidents happen towards the coast.

df11 <- df1 %>%
  group_by(COUNTY.x) %>%
  summarise(count = n())

df11

## # A tibble: 283 x 2
##    COUNTY.x count
##       <int> <int>
##  1        1   830
##  2        3   872
##  3        5   700
##  4        6    13
##  5        7   432
##  6        9   513
##  7       11   578
##  8       12    18
##  9       13   936
## 10       14     3
## # ... with 273 more rows
…
GLC2 <- GLC %>%
  select(`County Code`, `County Name`) %>%
  distinct(`County Code`, `County Name`) %>%
  rename(COUNTY = `County Name`)%>%
  rename(COUNTY.x = `County Code`)

GLC2$subregion = tolower(GLC2$COUNTY)

GLC2

## # A tibble: 3,010 x 3
##    COUNTY.x COUNTY     subregion 
##       <int> <chr>      <chr>     
##  1       67 HENRY      henry     
##  2       95 MARSHALL   marshall  
##  3      123 TALLAPOOSA tallapoosa
##  4      107 PICKENS    pickens   
##  5       39 COVINGTON  covington 
##  6       77 LAUDERDALE lauderdale
##  7       15 CALHOUN    calhoun   
##  8      109 PIKE       pike      
##  9       83 LIMESTONE  limestone 
## 10       73 JEFFERSON  jefferson 
## # ... with 3,000 more rows

joined4 <- inner_join(GLC2, df11, by = 'COUNTY.x')

joined5 <- inner_join(joined4,county, by = 'subregion')

joined5

## # A tibble: 374,810 x 9
##    COUNTY.x COUNTY subregion count  long   lat group order region 
##       <int> <chr>  <chr>     <int> <dbl> <dbl> <dbl> <int> <chr>  
##  1       67 HENRY  henry       517 -85.4  31.3    34  1585 alabama
##  2       67 HENRY  henry       517 -85.4  31.6    34  1586 alabama
##  3       67 HENRY  henry       517 -85.4  31.7    34  1587 alabama
##  4       67 HENRY  henry       517 -85.2  31.7    34  1588 alabama
##  5       67 HENRY  henry       517 -85.2  31.7    34  1589 alabama
##  6       67 HENRY  henry       517 -85.2  31.8    34  1590 alabama
##  7       67 HENRY  henry       517 -85.2  31.8    34  1591 alabama
##  8       67 HENRY  henry       517 -85.2  31.8    34  1592 alabama
##  9       67 HENRY  henry       517 -85.1  31.8    34  1593 alabama
## 10       67 HENRY  henry       517 -85.1  31.8    34  1594 alabama
## # ... with 374,800 more rows
…
